﻿Código do Estado ou Distrito Federal;Sigla UF;Estado ou Distrito Federal;População Total Estimada (2019);Total de Enfermeiros;Total de Enfermeiros no SUS;Enfermeiros a cada 100mil hab;Enfermeiros no SUS a cada 100mil hab;x;y
28;SE;SERGIPE;2298696;2337;2244;101.666336044436;97.6205640067238;;
21;MA;MARANHÃO;7075181;7505;7280;106.075024794419;102.894894137691;;
32;ES;ESPÍRITO SANTO;4018650;5164;4264;128.500864718251;106.105284112824;;
13;AM;AMAZONAS;4144597;4251;3977;102.567270110942;95.9562534065435;;
14;RR;RORAIMA;605761;782;754;129.093817528695;124.471532502092;;
52;GO;GOIÁS;7018354;7090;6566;101.020837649398;93.5546995777073;;
16;AP;AMAPÁ;845731;927;904;109.609320221205;106.889779374293;;
25;PB;PARAÍBA;4018127;5989;5891;149.049544725689;146.610597425119;;
22;PI;PIAUÍ;3273227;3675;3557;112.274522970756;108.66951787945;;
35;SP;SÃO PAULO;45919049;65705;49957;143.088764752075;108.793629415104;;
26;PE;PERNAMBUCO;9557071;11218;10545;117.379058918784;110.337152460205;;
33;RJ;RIO DE JANEIRO;17264943;24134;19565;139.786155100541;113.322123333972;;
50;MS;MATO GROSSO DO SUL;2778986;3551;3228;127.780420628244;116.157476144176;;
51;MT;MATO GROSSO;3484466;4287;3668;123.03176440809;105.26720593629;;
29;BA;BAHIA;14873064;18453;17323;124.069929370303;116.472301874046;;
31;MG;MINAS GERAIS;21168791;27127;23393;128.146194083545;110.507019508105;;
27;AL;ALAGOAS;3337357;3368;3206;100.918181662915;96.064041095993;;
23;CE;CEARÁ;9132078;10466;8778;114.606993063353;96.122700660244;;
24;RN;RIO GRANDE DO NORTE;3506853;3913;3712;111.581523377227;105.849888774922;;
41;PR;PARANÁ;11433957;14657;12896;128.188342845788;112.786850606487;;
11;RO;RONDÔNIA;1777225;1921;1786;108.089859190592;100.493747274543;;
53;DF;DISTRITO FEDERAL;3015268;5976;4676;198.191338216039;155.077425953514;;
12;AC;ACRE;881935;1049;1001;118.943006003844;113.50042803608;;
15;PA;PARÁ;8602865;6499;6187;75.5446005487707;71.9179017687712;;
17;TO;TOCANTINS;1572866;2793;2733;177.573931917913;173.75923950292;;
